…
    ## ── Conflicts ──────────────────────────── tidyverse_conflicts() ──
    ## ✖ dplyr::filter() masks stats::filter()
    ## ✖ dplyr::lag()    masks stats::lag()

``` r
library(gapminder)

gapminder
```

    ## # A tibble: 1,704 x 6
    ##    country     continent  year lifeExp      pop gdpPercap
    ##    <fct>       <fct>     <int>   <dbl>    <int>     <dbl>
    ##  1 Afghanistan Asia       1952    28.8  8425333      779.
    ##  2 Afghanistan Asia       1957    30.3  9240934      821.
    ##  3 Afghanistan Asia       1962    32.0 10267083      853.
    ##  4 Afghanistan Asia       1967    34.0 11537966      836.
    ##  5 Afghanistan Asia       1972    36.1 13079460      740.
    ##  6 Afghanistan Asia       1977    38.4 14880372      786.
    ##  7 Afghanistan Asia       1982    39.9 12881816      978.
    ##  8 Afghanistan Asia       1987    40.8 13867957      852.
    ##  9 Afghanistan Asia       1992    41.7 16317921      649.
    ## 10 Afghanistan Asia       1997    41.8 22227415      635.
    ## # ... with 1,694 more rows
…
``` r
#Import and print the HIV data using read_csv
(hiv <- read_csv("data/gapminder_hiv.csv"))
```

    ## Parsed with column specification:
    ## cols(
    ##   country = col_character(),
    ##   year = col_integer(),
    ##   hivRate = col_double()
    ## )

    ## # A tibble: 3,301 x 3
    ##    country                   year hivRate
    ##    <chr>                    <int>   <dbl>
    ##  1 Angola                    1979  0.0265
    ##  2 Argentina                 1979  0.0205
    ##  3 Bahamas                   1979  0.0100
    ##  4 Barbados                  1979  0.0277
    ##  5 Botswana                  1979  0.106 
    ##  6 Brazil                    1979  0.0945
    ##  7 Burkina Faso              1979  0.0100
    ##  8 Burundi                   1979  0.0159
    ##  9 Canada                    1979  0.0130
    ## 10 Central African Republic  1979  0.113 
    ## # ... with 3,291 more rows
…
