…
``` r
scdbv_mod
```

    ## # A tibble: 78,857 x 61
    ##    caseId  docketId  caseIssuesId voteId  dateDecision decisionType usCite
    ##    <chr>   <chr>     <chr>        <chr>   <chr>               <int> <chr> 
    ##  1 1946-0… 1946-001… 1946-001-01… 1946-0… 11/18/1946              1 329 U…
    ##  2 1946-0… 1946-001… 1946-001-01… 1946-0… 11/18/1946              1 329 U…
    ##  3 1946-0… 1946-001… 1946-001-01… 1946-0… 11/18/1946              1 329 U…
    ##  4 1946-0… 1946-001… 1946-001-01… 1946-0… 11/18/1946              1 329 U…
    ##  5 1946-0… 1946-001… 1946-001-01… 1946-0… 11/18/1946              1 329 U…
    ##  6 1946-0… 1946-001… 1946-001-01… 1946-0… 11/18/1946              1 329 U…
    ##  7 1946-0… 1946-001… 1946-001-01… 1946-0… 11/18/1946              1 329 U…
    ##  8 1946-0… 1946-001… 1946-001-01… 1946-0… 11/18/1946              1 329 U…
    ##  9 1946-0… 1946-001… 1946-001-01… 1946-0… 11/18/1946              1 329 U…
    ## 10 1946-0… 1946-002… 1946-002-01… 1946-0… 11/18/1946              1 329 U…
    ## # ... with 78,847 more rows, and 54 more variables: sctCite <chr>,
    ## #   ledCite <chr>, lexisCite <chr>, term <int>, naturalCourt <int>,
    ## #   chief <chr>, docket <int>, caseName <chr>, dateArgument <chr>,
    ## #   dateRearg <chr>, petitioner <int>, petitionerState <int>,
    ## #   respondent <int>, respondentState <int>, jurisdiction <int>,
    ## #   adminAction <int>, adminActionState <int>, threeJudgeFdc <int>,
    ## #   caseOrigin <int>, caseOriginState <int>, caseSource <int>,
    ## #   caseSourceState <int>, lcDisagreement <int>, certReason <int>,
    ## #   lcDisposition <int>, lcDispositionDirection <int>,
…
``` r
scdbv_leg
```

    ## # A tibble: 172,215 x 61
    ##    caseId  docketId  caseIssuesId voteId  dateDecision decisionType usCite
    ##    <chr>   <chr>     <chr>        <chr>   <chr>               <int> <chr> 
    ##  1 1791-0… 1791-001… 1791-001-01… 1791-0… 8/3/1791                6 2 U.S…
    ##  2 1791-0… 1791-001… 1791-001-01… 1791-0… 8/3/1791                6 2 U.S…
    ##  3 1791-0… 1791-001… 1791-001-01… 1791-0… 8/3/1791                6 2 U.S…
    ##  4 1791-0… 1791-001… 1791-001-01… 1791-0… 8/3/1791                6 2 U.S…
    ##  5 1791-0… 1791-001… 1791-001-01… 1791-0… 8/3/1791                6 2 U.S…
    ##  6 1791-0… 1791-002… 1791-002-01… 1791-0… 8/3/1791                2 2 U.S…
    ##  7 1791-0… 1791-002… 1791-002-01… 1791-0… 8/3/1791                2 2 U.S…
    ##  8 1791-0… 1791-002… 1791-002-01… 1791-0… 8/3/1791                2 2 U.S…
    ##  9 1791-0… 1791-002… 1791-002-01… 1791-0… 8/3/1791                2 2 U.S…
    ## 10 1791-0… 1791-002… 1791-002-01… 1791-0… 8/3/1791                2 2 U.S…
    ## # ... with 172,205 more rows, and 54 more variables: sctCite <chr>,
    ## #   ledCite <chr>, lexisCite <chr>, term <int>, naturalCourt <int>,
    ## #   chief <chr>, docket <chr>, caseName <chr>, dateArgument <chr>,
    ## #   dateRearg <chr>, petitioner <int>, petitionerState <int>,
    ## #   respondent <int>, respondentState <int>, jurisdiction <int>,
    ## #   adminAction <chr>, adminActionState <chr>, threeJudgeFdc <int>,
    ## #   caseOrigin <int>, caseOriginState <int>, caseSource <int>,
    ## #   caseSourceState <int>, lcDisagreement <int>, certReason <int>,
    ## #   lcDisposition <int>, lcDispositionDirection <int>,
…
Combine the datasets
--------------------

``` r
#To efficiently combine the character/numeric columns, I at first tried "mutate_all" to coerce all numeric variables into as.characters. But soon I realise it limits my ability to perform numeric calculations such as MajVotes - MinVotes in the subsequent question. After numerous trials and errors I found the most efficient method here http://stat545.com/block029_factors.html.
# scdbv <- # add your code here
scdbv_all <- rbind(scdbv_leg, scdbv_mod)
scdbv_all
```

    ## # A tibble: 251,072 x 61
    ##    caseId  docketId  caseIssuesId voteId  dateDecision decisionType usCite
    ##    <chr>   <chr>     <chr>        <chr>   <chr>               <int> <chr> 
    ##  1 1791-0… 1791-001… 1791-001-01… 1791-0… 8/3/1791                6 2 U.S…
    ##  2 1791-0… 1791-001… 1791-001-01… 1791-0… 8/3/1791                6 2 U.S…
    ##  3 1791-0… 1791-001… 1791-001-01… 1791-0… 8/3/1791                6 2 U.S…
    ##  4 1791-0… 1791-001… 1791-001-01… 1791-0… 8/3/1791                6 2 U.S…
    ##  5 1791-0… 1791-001… 1791-001-01… 1791-0… 8/3/1791                6 2 U.S…
    ##  6 1791-0… 1791-002… 1791-002-01… 1791-0… 8/3/1791                2 2 U.S…
    ##  7 1791-0… 1791-002… 1791-002-01… 1791-0… 8/3/1791                2 2 U.S…
    ##  8 1791-0… 1791-002… 1791-002-01… 1791-0… 8/3/1791                2 2 U.S…
    ##  9 1791-0… 1791-002… 1791-002-01… 1791-0… 8/3/1791                2 2 U.S…
    ## 10 1791-0… 1791-002… 1791-002-01… 1791-0… 8/3/1791                2 2 U.S…
    ## # ... with 251,062 more rows, and 54 more variables: sctCite <chr>,
    ## #   ledCite <chr>, lexisCite <chr>, term <int>, naturalCourt <int>,
    ## #   chief <chr>, docket <chr>, caseName <chr>, dateArgument <chr>,
    ## #   dateRearg <chr>, petitioner <int>, petitionerState <int>,
    ## #   respondent <int>, respondentState <int>, jurisdiction <int>,
    ## #   adminAction <chr>, adminActionState <chr>, threeJudgeFdc <int>,
    ## #   caseOrigin <int>, caseOriginState <int>, caseSource <int>,
    ## #   caseSourceState <int>, lcDisagreement <int>, certReason <int>,
    ## #   lcDisposition <int>, lcDispositionDirection <int>,
…
Recode variables as you find necessary
--------------------------------------

``` r
#Create a new variable for margin votes. Then, select 10 variables I need for this assignment.
scdbv <- scdbv_all %>%
  mutate(margin = majVotes - minVotes) %>%
  select(caseIssuesId, term, justice, justiceName, decisionDirection, majVotes, minVotes, margin, majority, chief, vote)
scdbv
```

    ## # A tibble: 251,072 x 11
    ##    caseIssuesId    term justice justiceName decisionDirection majVotes
    ##    <chr>          <int>   <int> <chr>                   <int>    <int>
    ##  1 1791-001-01-01  1791       1 JJay                        1        5
    ##  2 1791-001-01-01  1791       3 WCushing                    1        5
    ##  3 1791-001-01-01  1791       4 JWilson                     1        5
    ##  4 1791-001-01-01  1791       5 JBlair                      1        5
    ##  5 1791-001-01-01  1791       6 JIredell                    1        5
    ##  6 1791-002-01-01  1791       1 JJay                        2        5
    ##  7 1791-002-01-01  1791       3 WCushing                    2        5
    ##  8 1791-002-01-01  1791       4 JWilson                     2        5
    ##  9 1791-002-01-01  1791       5 JBlair                      2        5
    ## 10 1791-002-01-01  1791       6 JIredell                    2        5
    ## # ... with 251,062 more rows, and 5 more variables: minVotes <int>,
    ## #   margin <int>, majority <int>, chief <chr>, vote <int>
…
