…
``` r
# load useful packages
library(tidyverse)

# set default theme
theme_set(theme_minimal())
```

``` r
scdbv_mod
```

    ## # A tibble: 78,857 x 61
    ##      caseId    docketId   caseIssuesId               voteId dateDecision
    ##       <chr>       <chr>          <chr>                <chr>        <chr>
    ##  1 1946-001 1946-001-01 1946-001-01-01 1946-001-01-01-01-01   11/18/1946
    ##  2 1946-001 1946-001-01 1946-001-01-01 1946-001-01-01-01-02   11/18/1946
    ##  3 1946-001 1946-001-01 1946-001-01-01 1946-001-01-01-01-03   11/18/1946
    ##  4 1946-001 1946-001-01 1946-001-01-01 1946-001-01-01-01-04   11/18/1946
    ##  5 1946-001 1946-001-01 1946-001-01-01 1946-001-01-01-01-05   11/18/1946
    ##  6 1946-001 1946-001-01 1946-001-01-01 1946-001-01-01-01-06   11/18/1946
    ##  7 1946-001 1946-001-01 1946-001-01-01 1946-001-01-01-01-07   11/18/1946
    ##  8 1946-001 1946-001-01 1946-001-01-01 1946-001-01-01-01-08   11/18/1946
    ##  9 1946-001 1946-001-01 1946-001-01-01 1946-001-01-01-01-09   11/18/1946
    ## 10 1946-002 1946-002-01 1946-002-01-01 1946-002-01-01-01-01   11/18/1946
    ## # ... with 78,847 more rows, and 56 more variables: decisionType <int>,
    ## #   usCite <chr>, sctCite <chr>, ledCite <chr>, lexisCite <chr>,
    ## #   term <int>, naturalCourt <int>, chief <chr>, docket <chr>,
    ## #   caseName <chr>, dateArgument <chr>, dateRearg <chr>, petitioner <int>,
    ## #   petitionerState <int>, respondent <int>, respondentState <int>,
    ## #   jurisdiction <int>, adminAction <int>, adminActionState <int>,
    ## #   threeJudgeFdc <int>, caseOrigin <int>, caseOriginState <int>,
    ## #   caseSource <int>, caseSourceState <int>, lcDisagreement <int>,
    ## #   certReason <int>, lcDisposition <int>, lcDispositionDirection <int>,
…
``` r
scdbv_leg
```

    ## # A tibble: 172,215 x 61
    ##      caseId    docketId   caseIssuesId               voteId dateDecision
    ##       <chr>       <chr>          <chr>                <chr>        <chr>
    ##  1 1791-001 1791-001-01 1791-001-01-01 1791-001-01-01-01-01     8/3/1791
    ##  2 1791-001 1791-001-01 1791-001-01-01 1791-001-01-01-01-02     8/3/1791
    ##  3 1791-001 1791-001-01 1791-001-01-01 1791-001-01-01-01-03     8/3/1791
    ##  4 1791-001 1791-001-01 1791-001-01-01 1791-001-01-01-01-04     8/3/1791
    ##  5 1791-001 1791-001-01 1791-001-01-01 1791-001-01-01-01-05     8/3/1791
    ##  6 1791-002 1791-002-01 1791-002-01-01 1791-002-01-01-01-01     8/3/1791
    ##  7 1791-002 1791-002-01 1791-002-01-01 1791-002-01-01-01-02     8/3/1791
    ##  8 1791-002 1791-002-01 1791-002-01-01 1791-002-01-01-01-03     8/3/1791
    ##  9 1791-002 1791-002-01 1791-002-01-01 1791-002-01-01-01-04     8/3/1791
    ## 10 1791-002 1791-002-01 1791-002-01-01 1791-002-01-01-01-05     8/3/1791
    ## # ... with 172,205 more rows, and 56 more variables: decisionType <int>,
    ## #   usCite <chr>, sctCite <chr>, ledCite <chr>, lexisCite <chr>,
    ## #   term <int>, naturalCourt <int>, chief <chr>, docket <chr>,
    ## #   caseName <chr>, dateArgument <chr>, dateRearg <chr>, petitioner <int>,
    ## #   petitionerState <int>, respondent <int>, respondentState <int>,
    ## #   jurisdiction <int>, adminAction <dbl>, adminActionState <dbl>,
    ## #   threeJudgeFdc <int>, caseOrigin <int>, caseOriginState <int>,
    ## #   caseSource <int>, caseSourceState <int>, lcDisagreement <int>,
    ## #   certReason <int>, lcDisposition <int>, lcDispositionDirection <int>,
    ## #   declarationUncon <int>, caseDisposition <int>,
    ## #   caseDispositionUnusual <int>, partyWinning <int>,
    ## #   precedentAlteration <int>, voteUnclear <int>, issue <int>,
    ## #   issueArea <int>, decisionDirection <int>,
    ## #   decisionDirectionDissent <int>, authorityDecision1 <int>,
    ## #   authorityDecision2 <int>, lawType <int>, lawSupp <int>,
    ## #   lawMinor <chr>, majOpinWriter <int>, majOpinAssigner <int>,
    ## #   splitVote <int>, majVotes <int>, minVotes <int>, justice <int>,
    ## #   justiceName <chr>, vote <int>, opinion <int>, direction <int>,
    ## #   majority <int>, firstAgreement <int>, secondAgreement <int>

Combine the datasets
--------------------

    ## # A tibble: 251,072 x 61
    ##      caseId    docketId   caseIssuesId               voteId dateDecision
    ##       <chr>       <chr>          <chr>                <chr>        <chr>
    ##  1 1946-001 1946-001-01 1946-001-01-01 1946-001-01-01-01-01   11/18/1946
    ##  2 1946-001 1946-001-01 1946-001-01-01 1946-001-01-01-01-02   11/18/1946
    ##  3 1946-001 1946-001-01 1946-001-01-01 1946-001-01-01-01-03   11/18/1946
    ##  4 1946-001 1946-001-01 1946-001-01-01 1946-001-01-01-01-04   11/18/1946
    ##  5 1946-001 1946-001-01 1946-001-01-01 1946-001-01-01-01-05   11/18/1946
    ##  6 1946-001 1946-001-01 1946-001-01-01 1946-001-01-01-01-06   11/18/1946
    ##  7 1946-001 1946-001-01 1946-001-01-01 1946-001-01-01-01-07   11/18/1946
    ##  8 1946-001 1946-001-01 1946-001-01-01 1946-001-01-01-01-08   11/18/1946
    ##  9 1946-001 1946-001-01 1946-001-01-01 1946-001-01-01-01-09   11/18/1946
    ## 10 1946-002 1946-002-01 1946-002-01-01 1946-002-01-01-01-01   11/18/1946
    ## # ... with 251,062 more rows, and 56 more variables: decisionType <int>,
    ## #   usCite <chr>, sctCite <chr>, ledCite <chr>, lexisCite <chr>,
    ## #   term <int>, naturalCourt <int>, chief <chr>, docket <chr>,
    ## #   caseName <chr>, dateArgument <chr>, dateRearg <chr>, petitioner <int>,
    ## #   petitionerState <int>, respondent <int>, respondentState <int>,
    ## #   jurisdiction <int>, adminAction <dbl>, adminActionState <dbl>,
    ## #   threeJudgeFdc <int>, caseOrigin <int>, caseOriginState <int>,
    ## #   caseSource <int>, caseSourceState <int>, lcDisagreement <int>,
    ## #   certReason <int>, lcDisposition <int>, lcDispositionDirection <int>,
…
